C:\GIT2\Sistemas\COMMONS\commons\src\main\java\br\es\gov\cachoeiro\commons\enumerator\SexoEnum.java
C:\GIT2\Sistemas\COMMONS\commons\src\main\java\br\es\gov\cachoeiro\commons\formatador\Formatador.java
C:\GIT2\Sistemas\COMMONS\commons\src\main\java\br\es\gov\cachoeiro\commons\serializacao\Serializacao.java
C:\GIT2\Sistemas\COMMONS\commons\src\main\java\br\es\gov\cachoeiro\commons\application\Application.java
C:\GIT2\Sistemas\COMMONS\commons\src\main\java\br\es\gov\cachoeiro\commons\validator\Validator.java
C:\GIT2\Sistemas\COMMONS\commons\src\main\java\br\es\gov\cachoeiro\commons\application\Constants.java
C:\GIT2\Sistemas\COMMONS\commons\src\main\java\br\es\gov\cachoeiro\commons\formatador\NumeroExtenso.java
C:\GIT2\Sistemas\COMMONS\commons\src\main\java\br\es\gov\cachoeiro\commons\formatador\MoedaExtenso.java
C:\GIT2\Sistemas\COMMONS\commons\src\main\java\br\es\gov\cachoeiro\commons\crypt\Crypt.java
C:\GIT2\Sistemas\COMMONS\commons\src\main\java\br\es\gov\cachoeiro\commons\application\Arquivo.java
C:\GIT2\Sistemas\COMMONS\commons\src\main\java\br\es\gov\cachoeiro\commons\application\ArquivoAbstract.java
C:\GIT2\Sistemas\COMMONS\commons\src\main\java\br\es\gov\cachoeiro\commons\converter\Conversor.java
C:\GIT2\Sistemas\COMMONS\commons\src\main\java\br\es\gov\cachoeiro\commons\dominiodiscreto\AtivoInativoEnum.java
C:\GIT2\Sistemas\COMMONS\commons\src\main\java\br\es\gov\cachoeiro\commons\zip\Zipper.java
